[
  {
    "nombre":"Nombre tema 1",
    "creado":"10-03-2020",
    "actualizado":"16-03-2020 10:00",
    "mens":20,
    "usuarioCreacion":"jalaguero",
    "uidCreacion":"0ReHtMzyLMhDcH4aDmp77mW50dX2",
    "tag":["veg"],
    "idioma": "es"
  },
  {
    "nombre":"Nombre tema 2",
    "creado":"11-03-2020",
    "actualizado":"17-03-2020 10:00",
    "mens":15,
    "usuarioCreacion":"jalaguero",
    "uidCreacion":"0ReHtMzyLMhDcH4aDmp77mW50dX2",
    "tag":["cel"],
    "idioma": "en"
  },
  {
    "nombre":"Nombre tema 3",
    "creado":"12-03-2020",
    "actualizado":"18-03-2020 10:00",
    "mens":25,
    "usuarioCreacion":"jalaguero",
    "uidCreacion":"0ReHtMzyLMhDcH4aDmp77mW50dX2",
    "tag":["none"],
    "idioma": "es"
  },
  {
    "nombre":"Nombre tema 4",
    "creado":"17-03-2020",
    "actualizado":"23-03-2020 10:00",
    "mens":26,
    "usuarioCreacion":"jalaguero",
    "uidCreacion":"0ReHtMzyLMhDcH4aDmp77mW50dX2",
    "tag":["lac"],
    "idioma": "en"
  }
]